Total number of traces: 2362000 ≈ 2^21.17

Class Distribution: 

+---------------------+-------------------+
| Hamming Weight (HW) | Number of samples |
+---------------------+-------------------+
|          0          |       14000       |
+---------------------+-------------------+
|          1          |       14000       |
+---------------------+-------------------+
|          2          |       14002       |
+---------------------+-------------------+
|          3          |       14005       |
+---------------------+-------------------+
|          4          |       14012       |
+---------------------+-------------------+
|          5          |       14098       |
+---------------------+-------------------+
|          6          |       14377       |
+---------------------+-------------------+
|          7          |       15514       |
+---------------------+-------------------+
|          8          |       18505       |
+---------------------+-------------------+
|          9          |       26461       |
+---------------------+-------------------+
|         10          |       42142       |
+---------------------+-------------------+
|         11          |       70991       |
+---------------------+-------------------+
|         12          |      113913       |
+---------------------+-------------------+
|         13          |      168198       |
+---------------------+-------------------+
|         14          |      222760       |
+---------------------+-------------------+
|         15          |      264618       |
+---------------------+-------------------+
|         16          |      280021       |
+---------------------+-------------------+
|         17          |      263850       |
+---------------------+-------------------+
|         18          |      221995       |
+---------------------+-------------------+
|         19          |      167451       |
+---------------------+-------------------+
|         20          |      114025       |
+---------------------+-------------------+
|         21          |       71292       |
+---------------------+-------------------+
|         22          |       42623       |
+---------------------+-------------------+
|         23          |       26475       |
+---------------------+-------------------+
|         24          |       18645       |
+---------------------+-------------------+
|         25          |       15532       |
+---------------------+-------------------+
|         26          |       14381       |
+---------------------+-------------------+
|         27          |       14102       |
+---------------------+-------------------+
|         28          |       14010       |
+---------------------+-------------------+
|         29          |       14002       |
+---------------------+-------------------+
|         30          |       14000       |
+---------------------+-------------------+
|         31          |       14000       |
+---------------------+-------------------+
|         32          |       14000       |
+---------------------+-------------------+